{
    "root": "C:/root/",
    "section":[{
        "forcedfallback": "false",
        "species" : "human",
        "id": "1",
        "copy": "null",
        "input": {
            "human_icon":{
                "default":"icon.png"
            },
            "human_geneAlias":{
                "default":"gene_name_alias.txt", 
                "fallback":""
            },
            "human_geneLocation":{
                "default":"gene_location.txt", 
                "fallback":""
            },
            "human_phenotypeOMIM":{
                "default":"phenotype_omim.txt", 
                "fallback":""
            },
            "human_morbidMap":{
                "default":"morbidgene.txt",
                "fallback":""
            },
            "human_genePhenAssociation":{
                "default":"g_p_network.csv", 
                "fallback":"g_p_network_old.csv"
            },
            "human_phenotypeScoreMatrix":{
                "default":"phenotype_Matrix.csv", 
                "fallback":"phenotype_Matrix_old.csv"
            },
            "human_geneScoreMatrix":{
                "default":"gene_Matrix.csv", 
                "fallback":"gene_Matrix_old.csv"
            },
            "human_ridgeRegressionPhen":{
                "default":"gene_query_ridgeRegression.csv", 
                "fallback":"gene_query_ridgeRegression.csv"
            },
            "human_ridgeRegressionGen":{
                "default":"phenotype_query_ridgeRegression.csv", 
                "fallback":"phenotype_query_ridgeRegression_old.csv"
            },
            "human_geneNetwork":{
                "default":"ppi_connections.csv", 
                "fallback":"ppi_connections_old.csv"
            },
            "human_phenotypeNetwork":{
                "default":"phenotype_connections.csv", 
                "fallback":"phenotype_connections_old.csv"
            },
            "human_associationMatrix":{
                "default":"g_p_network_connections.csv", 
                "fallback":"g_p_network_connections_old.csv"
            },
            "human_associationMatrixGene":{
                "default":"g_p_network_connections.csv", 
                "fallback":"g_p_network_connections_old.csv"
            }
        }
    },
    {
        "forcedfallback": "false",
        "species" : "mouse",
        "id": "2",
        "input": {
            "mouse_icon":{
                "default":"icon.png"
            },
            "mouse_geneAlias":{
                "default":"mouse_gene_name_alias.txt", 
                "fallback":""
            },
            "mouse_geneLocation":{
                "default":"mouse_gene_location.txt", 
                "fallback":""
            },
            "mouse_phenotypeOMIM":{
                "default":"mouse_phenotype_omim.txt", 
                "fallback":""
            },
            "mouse_morbidMap":{
                "default":"mouse_morbidgene.txt",
                "fallback":""
            },
            "mouse_genePhenAssociation":{
                "default":"mouse_g_p_network.csv", 
                "fallback":"g_p_network_old.csv"
            },
            "mouse_phenotypeScoreMatrix":{
                "default":"mouse_phenotype_Matrix.csv", 
                "fallback":"phenotype_Matrix_old.csv"
            },
            "mouse_geneScoreMatrix":{
                "default":"mouse_gene_Matrix.csv", 
                "fallback":"gene_Matrix_old.csv"
            },
            "mouse_ridgeRegressionPhen":{
                "default":"mouse_gene_query_ridgeRegression.csv", 
                "fallback":"mouse_gene_query_ridgeRegression.csv"
            },
            "mouse_ridgeRegressionGen":{
                "default":"mouse_phenotype_query_ridgeRegression.csv", 
                "fallback":"mouse_phenotype_query_ridgeRegression_old.csv"
            },
            "mouse_geneNetwork":{
                "default":"mouse_ppi_connections.csv", 
                "fallback":"mouse_ppi_connections_old.csv"
            },
            "mouse_phenotypeNetwork":{
                "default":"mouse_phenotype_connections.csv", 
                "fallback":"phenotype_connections_old.csv"
            },
            "mouse_associationMatrix":{
                "default":"mouse_g_p_network_connections.csv", 
                "fallback":"g_p_network_connections_old.csv"
            },
            "mouse_associationMatrixGene":{
                "default":"mouse_g_p_network_connections_genes.csv", 
                "fallback":"g_p_network_connections_old.csv"
            }
        }
    }]
}
